<?xml version="1.0" encoding="utf-8"?>
<!-- Generator: Adobe Illustrator 25.0.0, SVG Export Plug-In . SVG Version: 6.00 Build 0)  -->
<svg version="1.1" id="Layer_1" xmlns="http://www.w3.org/2000/svg" xmlns:xlink="http://www.w3.org/1999/xlink" x="0px" y="0px"
	 viewBox="0 0 1920 1080" style="enable-background:new 0 0 1920 1080;" xml:space="preserve">
<style type="text/css">
	.st0{fill:#39B54A;}
	.st1{display:none;}
	.st2{display:inline;}
</style>
<g>
<<<<<<< HEAD
	<path d="M60.1,252.4c0,0-4.6-2.3-13.9-7c-9.3-4.6-16.2-11.6-20.8-20.9c-4.6-9.3-6.9-20.9-6.9-34.9v-23.8c0-13.8,2.3-25.3,7-34.5
		c4.6-9.2,11.6-16.1,20.8-20.7s20.8-6.9,34.7-6.9c7.9,0,15.1,0.9,21.6,2.6s12.3,4.3,17.4,7.7c5.1,3.4,9.6,7.7,13.4,12.9l-14.9,13.2
		c-4.9-5.9-10.5-10.4-16.6-13.3c-6.2-2.9-13-4.4-20.4-4.4c-14.4,0-25.1,3.6-32.2,10.8s-10.6,18.1-10.6,32.6v23.8
		c0,14.8,3.6,25.8,10.7,33.1c7.1,7.3,17.9,11,32.1,11c7.9,0,15.1-1.4,21.5-4.2s12.3-7,17.5-12.7l12.9,12.8
		c-3.8,5.1-8.3,9.3-13.4,12.7c-5.1,3.3-10.9,5.8-17.4,7.5s-13.7,2.5-21.6,2.5C67.1,252.4,60.1,252.4,60.1,252.4z"/>
	<path d="M172.7,252.4c0,0-4.7-2.5-14.2-7.6s-16.7-12.4-21.6-22.1c-5-9.7-7.4-21.4-7.4-35v-16.3c0-14.3,2.4-26.5,7.2-36.6
		s11.7-17.8,20.8-23.1c9.1-5.3,20-7.9,32.8-7.9c12.1,0,22.4,2.6,30.9,7.8c8.5,5.2,15.1,12.8,19.6,22.8s6.7,22,6.7,36V187H143.1
		v-18.1h85.7v-1.4c0-14.3-3.4-25.3-10.1-33.2c-6.7-7.8-16.2-11.8-28.5-11.8c-13.5,0-23.8,4.1-31.2,12.4c-7.3,8.3-11,19.9-11,35.1
		v18.4c0,14.5,3.9,25.7,11.7,33.6s18.8,11.9,33,11.9c6.7,0,13.3-1.4,19.8-4.2s12.4-6.7,17.5-11.8l13.6,13.1
		c-7.1,6.9-15,12.2-23.9,15.9s-17.9,5.6-27,5.6C179.4,252.4,172.7,252.4,172.7,252.4z"/>
	<path d="M237.4,105.9H258l47.5,134L295,262.2L237.4,105.9z M365.3,105.9l-61.5,178.3c-2.2,6.6-5.1,11.8-8.8,15.7s-8.1,6.6-13.4,8.3
		s-11.8,2.5-19.5,2.5h-5.7v-18.9h5.7c7.4,0,13.3-1.7,17.7-5.1c4.4-3.4,8.2-9.2,11.3-17.5L344.5,106h20.8V105.9z"/>
	<path d="M385.2,212.4c0,6.1,1.5,10.9,4.5,14.3c3,3.4,7.2,5.1,12.6,5.1h13.4v18.6H399c-10.8,0-19.1-3.3-25-10s-8.8-16.1-8.8-28.3V48
		h20V212.4z"/>
	<path d="M441.4,245.1c-8.9-4.9-15.7-12.1-20.4-21.5c-4.7-9.4-7-20.8-7-34V166c0-13.1,2.3-24.3,7-33.6s11.5-16.4,20.4-21.3
		s19.6-7.3,32.1-7.3s23.2,2.4,32.1,7.3s15.7,12,20.4,21.3s7,20.5,7,33.6v23.9c0,13.2-2.3,24.4-7,33.7S514.5,240,505.6,245
		c-8.9,4.9-19.6,7.4-32.1,7.4S450.3,250,441.4,245.1z M502.7,222.3c6.9-7.7,10.4-18.4,10.4-32.4V166c0-13.8-3.5-24.5-10.4-32.1
		c-6.9-7.6-16.7-11.4-29.3-11.4c-12.5,0-22.2,3.8-29.1,11.4c-6.9,7.6-10.3,18.3-10.3,32.1v23.9c0,13.9,3.4,24.7,10.3,32.4
		s16.6,11.5,29.1,11.5C486,233.8,495.8,230,502.7,222.3z"/>
	<path d="M542.1,105.9h20v144.4h-20V105.9z M638.1,162.8c0-12.8-3.4-22.7-10.1-29.8c-6.7-7-16.2-10.6-28.5-10.6
		c-11.9,0-21.1,3.1-27.6,9.4s-9.8,15.1-9.8,26.6l-2.9-27.8c5.1-9.5,11.9-16.3,20.3-20.5c8.4-4.2,18.2-6.3,29.4-6.3
		c15.7,0,27.8,5.1,36.4,15.4c8.6,10.3,12.9,24.7,12.9,43.5v87.7h-20v-87.6H638.1z"/>
</g>
<g>
	<path class="st0" d="M687.5,245.9c-7.3-4.9-12.8-12-16.6-21.4c-3.8-9.3-5.7-20.6-5.7-33.7v-23.1c0-13.3,1.9-24.6,5.7-34.1
		c3.8-9.5,9.3-16.7,16.6-21.6s16-7.4,26.2-7.4c7.7,0,14.7,2.3,21.1,6.9c6.4,4.6,11.5,11.1,15.4,19.6l-2.9,32c0-4.9-0.8-9.1-2.5-12.5
		s-4.1-6.1-7.3-7.9c-3.2-1.8-7.1-2.7-11.6-2.7c-7.1,0-12.7,2.4-16.6,7.3c-3.9,4.9-5.9,11.7-5.9,20.5v23c0,8.6,2,15.3,5.9,20
		s9.5,7.1,16.6,7.1c4.5,0,8.4-0.9,11.6-2.6c3.2-1.8,5.6-4.3,7.3-7.7s2.5-7.4,2.5-12.1l1.9,33c-3,7.9-7.5,14-13.6,18.3
		s-13.4,6.5-21.8,6.5C703.6,253.3,694.8,250.8,687.5,245.9z M703.3,309.9c0,0-4.5-2-13.6-6.1c-9-4-16.1-9.7-21.1-17l25.6-23.5
		c3.2,3.5,7.1,6.2,11.7,8.1c4.5,1.9,9.3,2.9,14.2,2.9c8,0,14.5-2.2,19.6-6.5c5.1-4.4,7.6-10.4,7.6-18.1v-143h38.1v140.1
		c0,13.3-2.5,24.6-7.6,34.1s-12.4,16.7-22.1,21.6c-9.7,4.9-21.4,7.4-35.1,7.4C709.1,309.9,703.3,309.9,703.3,309.9z"/>
	<path class="st0" d="M797.3,48.9h38.1V87h-38.1V48.9z M797.3,106.7h38.1v144.4h-38.1V106.7z"/>
	<path class="st0" d="M866.7,245.9c-7.3-4.9-12.8-12-16.6-21.4c-3.8-9.3-5.7-20.6-5.7-33.7v-23.1c0-13.3,1.9-24.6,5.7-34.1
		c3.8-9.5,9.3-16.7,16.6-21.6s16-7.4,26.2-7.4c7.7,0,14.7,2.3,21.1,6.9c6.4,4.6,11.5,11.1,15.4,19.6l-2.9,32c0-4.9-0.8-9.1-2.5-12.5
		s-4.1-6.1-7.3-7.9c-3.2-1.8-7.1-2.7-11.6-2.7c-7.1,0-12.7,2.4-16.6,7.3c-3.9,4.9-5.9,11.7-5.9,20.5v23c0,8.6,2,15.3,5.9,20
		s9.5,7.1,16.6,7.1c4.5,0,8.4-0.9,11.6-2.6c3.2-1.8,5.6-4.3,7.3-7.7s2.5-7.4,2.5-12.1l1.9,33c-3,7.9-7.5,14-13.6,18.3
		s-13.4,6.5-21.8,6.5C882.8,253.3,874,250.8,866.7,245.9z M882.5,309.9c0,0-4.5-2-13.6-6.1c-9-4-16.1-9.7-21.1-17l25.6-23.5
		c3.2,3.5,7.1,6.2,11.7,8.1c4.5,1.9,9.3,2.9,14.2,2.9c8,0,14.5-2.2,19.6-6.5c5.1-4.4,7.6-10.4,7.6-18.1v-143h38.1v140.1
		c0,13.3-2.5,24.6-7.6,34.1s-12.4,16.7-22.1,21.6c-9.7,4.9-21.4,7.4-35.1,7.4C888.3,309.9,882.5,309.9,882.5,309.9z"/>
</g>
<g class="st1">
	<path class="st2" d="M897.8,239.7c-7.3-4.9-12.8-12-16.6-21.4c-3.8-9.3-5.7-20.6-5.7-33.7v-23.1c0-13.3,1.9-24.6,5.7-34.1
		s9.3-16.7,16.6-21.6c7.3-4.9,16-7.4,26.2-7.4c7.7,0,14.7,2.3,21.1,6.9c6.4,4.6,11.5,11.1,15.4,19.6l-2.9,32c0-4.9-0.8-9.1-2.5-12.5
		s-4.1-6.1-7.3-7.9c-3.2-1.8-7.1-2.7-11.6-2.7c-7.1,0-12.7,2.4-16.6,7.3c-3.9,4.9-5.9,11.7-5.9,20.5v23c0,8.6,2,15.3,5.9,20
		s9.5,7.1,16.6,7.1c4.5,0,8.4-0.9,11.6-2.6c3.2-1.8,5.6-4.3,7.3-7.7s2.5-7.4,2.5-12.1l1.9,33c-3,7.9-7.5,14-13.6,18.3
		s-13.4,6.5-21.8,6.5C913.9,247.1,905.1,244.6,897.8,239.7z M913.6,303.7c0,0-4.5-2-13.6-6.1c-9-4-16.1-9.7-21.1-17l25.6-23.5
		c3.2,3.5,7.1,6.2,11.7,8.1c4.5,1.9,9.3,2.9,14.2,2.9c8,0,14.5-2.2,19.6-6.5c5.1-4.4,7.6-10.4,7.6-18.1V100.6h38.1v140.1
		c0,13.3-2.5,24.6-7.6,34.1s-12.4,16.7-22.1,21.6c-9.7,4.9-21.4,7.4-35.1,7.4C919.4,303.7,913.6,303.7,913.6,303.7z"/>
</g>
<g class="st1">
	<path class="st2" d="M828.6,41.9h38.1V80h-38.1V41.9z M828.6,99.8h38.1v144.4h-38.1V99.8z"/>
</g>
<g class="st1">
	<path class="st2" d="M720.4,239.4c-7.3-4.9-12.8-12-16.6-21.4c-3.8-9.3-5.7-20.6-5.7-33.7v-23.1c0-13.3,1.9-24.6,5.7-34.1
		s9.3-16.7,16.6-21.6c7.3-4.9,16-7.4,26.2-7.4c7.7,0,14.7,2.3,21.1,6.9c6.4,4.6,11.5,11.1,15.4,19.6l-2.9,32c0-4.9-0.8-9.1-2.5-12.5
		s-4.1-6.1-7.3-7.9c-3.2-1.8-7.1-2.7-11.6-2.7c-7.1,0-12.7,2.4-16.6,7.3c-3.9,4.9-5.9,11.7-5.9,20.5v23c0,8.6,2,15.3,5.9,20
		s9.5,7.1,16.6,7.1c4.5,0,8.4-0.9,11.6-2.6c3.2-1.8,5.6-4.3,7.3-7.7s2.5-7.4,2.5-12.1l1.9,33c-3,7.9-7.5,14-13.6,18.3
		s-13.4,6.5-21.8,6.5C736.4,246.8,727.7,244.3,720.4,239.4z M736.2,303.4c0,0-4.5-2-13.6-6.1c-9-4-16.1-9.7-21.1-17l25.6-23.5
		c3.2,3.5,7.1,6.2,11.7,8.1c4.5,1.9,9.3,2.9,14.2,2.9c8,0,14.5-2.2,19.6-6.5c5.1-4.4,7.6-10.4,7.6-18.1V100.3h38.1v140.1
		c0,13.3-2.5,24.6-7.6,34.1s-12.4,16.7-22.1,21.6c-9.7,4.9-21.4,7.4-35.1,7.4C741.9,303.4,736.2,303.4,736.2,303.4z"/>
</g>
<path d="M816.9,180l-0.2-0.1l-0.2,0.1l-4.8-3.2l0,0v-0.2l2.8-62.3h0.2h4h0.2l2.8,62.3v0.2l0,0L816.9,180z M812.2,107l2.2,6.7h0.2
	h4.2h0.2l2.2-6.7H812.2z"/>
<path d="M848.9,53.8c0,0-4,3.9-9,3.1c-3.7-0.6-32.4-5.2-43.2-6.6c-1.3-0.2-4.1-0.2-5.3-0.7c-1.8-0.7-5-3.8-5-5.7s4.6-0.9,5.5-0.8
	c0.9,0.1,4.8,0.7,4.8,0.7s3-9.2,4.1-12.1c1.1-2.8,1.4-10.3,19.1-6.1c5.3,1.3,16.8,1.4,18.3,3.4c1.3,1.9,1.8,10.5,1.9,13.5
	c0.1,2.9,0.1,9.2,1,9.6c0.4,0.2,2.3,0.7,4.2,0.9C847.2,53.3,849.1,53.3,848.9,53.8z"/>
<path d="M829.2,56.2c-1,0-5.5,0-7.8,0.6c-2.1,0.6-5.2,0.8-5.5,0.8l0,0c0,0-3.3-0.2-5.5-0.8c-2.3-0.6-6.7-0.6-7.8-0.6
	c-1,0-6.9,0.8-7.1,0.9l0.3,2.7c0,0,1-0.1,1.3,1.6c0.3,1.7,1.7,5.3,2.7,6.5c1.1,1.2,3.3,2.1,5.5,2.1s3.7-0.3,5.1-1.2
	c1.4-0.9,2.5-2.8,3.2-4.9s0.7-3,2.2-3l0,0c1.6,0,1.6,0.9,2.3,3s1.9,4,3.2,4.9c1.4,0.9,2.9,1.2,5.1,1.2c2.2,0,4.4-0.8,5.5-2.1
	c1-1.2,2.4-4.8,2.7-6.5s1.3-1.6,1.3-1.6l0.3-2.7C836,57,830.2,56.2,829.2,56.2z M812,65.6c-1.1,3-4,3.7-6.5,3.7s-4.3-0.9-5.2-2.1
	c-0.8-0.9-1.5-3.5-1.6-4.6c-0.1-1.2-0.4-3.8,1.1-4.6s5.8-0.6,5.8-0.6c1.4,0,3.1,0.3,4.8,0.7s2.6,1.1,2.8,2
	C813.2,61,813,62.6,812,65.6z M833.2,62.6c-0.1,1.2-0.9,3.7-1.6,4.6c-1,1.2-2.7,2.1-5.2,2.1s-5.4-0.6-6.5-3.7
	c-1.1-3-1.3-4.6-1.1-5.5s1.1-1.6,2.8-2s3.4-0.7,4.8-0.7c0,0,4.3-0.2,5.8,0.6C833.6,58.8,833.3,61.5,833.2,62.6z"/>
=======
	<path d="M470.1,578.4c0,0-4.6-2.3-13.9-7c-9.3-4.6-16.2-11.6-20.8-20.9c-4.6-9.3-6.9-20.9-6.9-34.9v-23.8c0-13.8,2.3-25.3,7-34.5
		c4.6-9.2,11.6-16.1,20.8-20.7c9.2-4.6,20.8-6.9,34.7-6.9c7.9,0,15.1,0.9,21.6,2.6c6.5,1.7,12.3,4.3,17.4,7.7
		c5.1,3.4,9.6,7.7,13.4,12.9l-14.9,13.2c-4.9-5.9-10.5-10.4-16.6-13.3c-6.2-2.9-13-4.4-20.4-4.4c-14.4,0-25.1,3.6-32.2,10.8
		c-7.1,7.2-10.6,18.1-10.6,32.6v23.8c0,14.8,3.6,25.8,10.7,33.1c7.1,7.3,17.9,11,32.1,11c7.9,0,15.1-1.4,21.5-4.2
		c6.4-2.8,12.3-7,17.5-12.7l12.9,12.8c-3.8,5.1-8.3,9.3-13.4,12.7c-5.1,3.3-10.9,5.8-17.4,7.5c-6.5,1.7-13.7,2.5-21.6,2.5
		C477.1,578.4,470.1,578.4,470.1,578.4z"/>
	<path d="M582.7,578.4c0,0-4.7-2.5-14.2-7.6c-9.5-5.1-16.7-12.4-21.6-22.1c-5-9.7-7.4-21.4-7.4-35v-16.3c0-14.3,2.4-26.5,7.2-36.6
		c4.8-10.1,11.7-17.8,20.8-23.1c9.1-5.3,20-7.9,32.8-7.9c12.1,0,22.4,2.6,30.9,7.8c8.5,5.2,15.1,12.8,19.6,22.8
		c4.5,10,6.7,22,6.7,36v16.6H553.1v-18.1h85.7v-1.4c0-14.3-3.4-25.3-10.1-33.2c-6.7-7.8-16.2-11.8-28.5-11.8
		c-13.5,0-23.8,4.1-31.2,12.4c-7.3,8.3-11,19.9-11,35.1v18.4c0,14.5,3.9,25.7,11.7,33.6c7.8,7.9,18.8,11.9,33,11.9
		c6.7,0,13.3-1.4,19.8-4.2c6.5-2.8,12.4-6.7,17.5-11.8l13.6,13.1c-7.1,6.9-15,12.2-23.9,15.9c-8.9,3.8-17.9,5.6-27,5.6
		C589.4,578.4,582.7,578.4,582.7,578.4z"/>
	<path d="M647.4,431.9H668l47.5,134L705,588.2L647.4,431.9z M775.3,431.9l-61.5,178.3c-2.2,6.6-5.1,11.8-8.8,15.7
		c-3.6,3.8-8.1,6.6-13.4,8.3s-11.8,2.5-19.5,2.5h-5.7v-18.9h5.7c7.4,0,13.3-1.7,17.7-5.1c4.4-3.4,8.2-9.2,11.3-17.5l53.4-163.2
		H775.3z"/>
	<path d="M795.2,538.4c0,6.1,1.5,10.9,4.5,14.3c3,3.4,7.2,5.1,12.6,5.1h13.4v18.6H809c-10.8,0-19.1-3.3-25-10
		c-5.9-6.7-8.8-16.1-8.8-28.3V374h20V538.4z"/>
	<path d="M851.4,571.1c-8.9-4.9-15.7-12.1-20.4-21.5c-4.7-9.4-7-20.8-7-34V492c0-13.1,2.3-24.3,7-33.6c4.7-9.3,11.5-16.4,20.4-21.3
		c8.9-4.9,19.6-7.3,32.1-7.3s23.2,2.4,32.1,7.3c8.9,4.9,15.7,12,20.4,21.3c4.7,9.3,7,20.5,7,33.6v23.9c0,13.2-2.3,24.4-7,33.7
		c-4.7,9.3-11.5,16.4-20.4,21.4c-8.9,4.9-19.6,7.4-32.1,7.4S860.3,576,851.4,571.1z M912.7,548.3c6.9-7.7,10.4-18.4,10.4-32.4V492
		c0-13.8-3.5-24.5-10.4-32.1c-6.9-7.6-16.7-11.4-29.3-11.4c-12.5,0-22.2,3.8-29.1,11.4c-6.9,7.6-10.3,18.3-10.3,32.1v23.9
		c0,13.9,3.4,24.7,10.3,32.4c6.9,7.7,16.6,11.5,29.1,11.5C896,559.8,905.8,556,912.7,548.3z"/>
	<path d="M952.1,431.9h20v144.4h-20V431.9z M1048.1,488.8c0-12.8-3.4-22.7-10.1-29.8c-6.7-7-16.2-10.6-28.5-10.6
		c-11.9,0-21.1,3.1-27.6,9.4c-6.5,6.3-9.8,15.1-9.8,26.6l-2.9-27.8c5.1-9.5,11.9-16.3,20.3-20.5c8.4-4.2,18.2-6.3,29.4-6.3
		c15.7,0,27.8,5.1,36.4,15.4c8.6,10.3,12.9,24.7,12.9,43.5v87.7h-20V488.8z"/>
</g>
<g>
	<path class="st0" d="M1097.5,571.9c-7.3-4.9-12.8-12-16.6-21.4c-3.8-9.3-5.7-20.6-5.7-33.7v-23.1c0-13.3,1.9-24.6,5.7-34.1
		c3.8-9.5,9.3-16.7,16.6-21.6c7.3-4.9,16-7.4,26.2-7.4c7.7,0,14.7,2.3,21.1,6.9c6.4,4.6,11.5,11.1,15.4,19.6l-2.9,32
		c0-4.9-0.8-9.1-2.5-12.5c-1.7-3.4-4.1-6.1-7.3-7.9c-3.2-1.8-7.1-2.7-11.6-2.7c-7.1,0-12.7,2.4-16.6,7.3c-3.9,4.9-5.9,11.7-5.9,20.5
		v23c0,8.6,2,15.3,5.9,20c3.9,4.7,9.5,7.1,16.6,7.1c4.5,0,8.4-0.9,11.6-2.6c3.2-1.8,5.6-4.3,7.3-7.7s2.5-7.4,2.5-12.1l1.9,33
		c-3,7.9-7.5,14-13.6,18.3c-6.1,4.3-13.4,6.5-21.8,6.5C1113.6,579.3,1104.8,576.8,1097.5,571.9z M1113.3,635.9c0,0-4.5-2-13.6-6.1
		s-16.1-9.7-21.1-17l25.6-23.5c3.2,3.5,7.1,6.2,11.7,8.1c4.5,1.9,9.3,2.9,14.2,2.9c8,0,14.5-2.2,19.6-6.5c5.1-4.4,7.6-10.4,7.6-18.1
		V432.7h38.1v140.1c0,13.3-2.5,24.6-7.6,34.1c-5.1,9.5-12.4,16.7-22.1,21.6c-9.7,4.9-21.4,7.4-35.1,7.4
		C1119.1,635.9,1113.3,635.9,1113.3,635.9z"/>
	<path class="st0" d="M1207.3,374.9h38.1V413h-38.1V374.9z M1207.3,432.7h38.1v144.4h-38.1V432.7z"/>
	<path class="st0" d="M1276.7,571.9c-7.3-4.9-12.8-12-16.6-21.4c-3.8-9.3-5.7-20.6-5.7-33.7v-23.1c0-13.3,1.9-24.6,5.7-34.1
		c3.8-9.5,9.3-16.7,16.6-21.6c7.3-4.9,16-7.4,26.2-7.4c7.7,0,14.7,2.3,21.1,6.9c6.4,4.6,11.5,11.1,15.4,19.6l-2.9,32
		c0-4.9-0.8-9.1-2.5-12.5c-1.7-3.4-4.1-6.1-7.3-7.9c-3.2-1.8-7.1-2.7-11.6-2.7c-7.1,0-12.7,2.4-16.6,7.3c-3.9,4.9-5.9,11.7-5.9,20.5
		v23c0,8.6,2,15.3,5.9,20c3.9,4.7,9.5,7.1,16.6,7.1c4.5,0,8.4-0.9,11.6-2.6c3.2-1.8,5.6-4.3,7.3-7.7s2.5-7.4,2.5-12.1l1.9,33
		c-3,7.9-7.5,14-13.6,18.3c-6.1,4.3-13.4,6.5-21.8,6.5C1292.8,579.3,1284,576.8,1276.7,571.9z M1292.5,635.9c0,0-4.5-2-13.6-6.1
		c-9-4-16.1-9.7-21.1-17l25.6-23.5c3.2,3.5,7.1,6.2,11.7,8.1c4.5,1.9,9.3,2.9,14.2,2.9c8,0,14.5-2.2,19.6-6.5
		c5.1-4.4,7.6-10.4,7.6-18.1V432.7h38.1v140.1c0,13.3-2.5,24.6-7.6,34.1c-5.1,9.5-12.4,16.7-22.1,21.6c-9.7,4.9-21.4,7.4-35.1,7.4
		C1298.3,635.9,1292.5,635.9,1292.5,635.9z"/>
</g>
<g class="st1">
	<path class="st2" d="M1275.8,571.7c-7.3-4.9-12.8-12-16.6-21.4c-3.8-9.3-5.7-20.6-5.7-33.7v-23.1c0-13.3,1.9-24.6,5.7-34.1
		c3.8-9.5,9.3-16.7,16.6-21.6c7.3-4.9,16-7.4,26.2-7.4c7.7,0,14.7,2.3,21.1,6.9c6.4,4.6,11.5,11.1,15.4,19.6l-2.9,32
		c0-4.9-0.8-9.1-2.5-12.5c-1.7-3.4-4.1-6.1-7.3-7.9c-3.2-1.8-7.1-2.7-11.6-2.7c-7.1,0-12.7,2.4-16.6,7.3c-3.9,4.9-5.9,11.7-5.9,20.5
		v23c0,8.6,2,15.3,5.9,20c3.9,4.7,9.5,7.1,16.6,7.1c4.5,0,8.4-0.9,11.6-2.6c3.2-1.8,5.6-4.3,7.3-7.7s2.5-7.4,2.5-12.1l1.9,33
		c-3,7.9-7.5,14-13.6,18.3c-6.1,4.3-13.4,6.5-21.8,6.5C1291.9,579.1,1283.1,576.6,1275.8,571.7z M1291.6,635.7c0,0-4.5-2-13.6-6.1
		c-9-4-16.1-9.7-21.1-17l25.6-23.5c3.2,3.5,7.1,6.2,11.7,8.1c4.5,1.9,9.3,2.9,14.2,2.9c8,0,14.5-2.2,19.6-6.5
		c5.1-4.4,7.6-10.4,7.6-18.1V432.6h38.1v140.1c0,13.3-2.5,24.6-7.6,34.1c-5.1,9.5-12.4,16.7-22.1,21.6c-9.7,4.9-21.4,7.4-35.1,7.4
		C1297.4,635.7,1291.6,635.7,1291.6,635.7z"/>
</g>
<g class="st1">
	<path class="st2" d="M1206.6,373.9h38.1v38.1h-38.1V373.9z M1206.6,431.8h38.1v144.4h-38.1V431.8z"/>
</g>
<g class="st1">
	<path class="st2" d="M1098.4,571.4c-7.3-4.9-12.8-12-16.6-21.4c-3.8-9.3-5.7-20.6-5.7-33.7v-23.1c0-13.3,1.9-24.6,5.7-34.1
		c3.8-9.5,9.3-16.7,16.6-21.6c7.3-4.9,16-7.4,26.2-7.4c7.7,0,14.7,2.3,21.1,6.9c6.4,4.6,11.5,11.1,15.4,19.6l-2.9,32
		c0-4.9-0.8-9.1-2.5-12.5c-1.7-3.4-4.1-6.1-7.3-7.9c-3.2-1.8-7.1-2.7-11.6-2.7c-7.1,0-12.7,2.4-16.6,7.3c-3.9,4.9-5.9,11.7-5.9,20.5
		v23c0,8.6,2,15.3,5.9,20c3.9,4.7,9.5,7.1,16.6,7.1c4.5,0,8.4-0.9,11.6-2.6c3.2-1.8,5.6-4.3,7.3-7.7s2.5-7.4,2.5-12.1l1.9,33
		c-3,7.9-7.5,14-13.6,18.3c-6.1,4.3-13.4,6.5-21.8,6.5C1114.4,578.8,1105.7,576.3,1098.4,571.4z M1114.2,635.4c0,0-4.5-2-13.6-6.1
		c-9-4-16.1-9.7-21.1-17l25.6-23.5c3.2,3.5,7.1,6.2,11.7,8.1c4.5,1.9,9.3,2.9,14.2,2.9c8,0,14.5-2.2,19.6-6.5
		c5.1-4.4,7.6-10.4,7.6-18.1V432.3h38.1v140.1c0,13.3-2.5,24.6-7.6,34.1c-5.1,9.5-12.4,16.7-22.1,21.6c-9.7,4.9-21.4,7.4-35.1,7.4
		C1119.9,635.4,1114.2,635.4,1114.2,635.4z"/>
</g>
<path d="M1226.9,506l-0.2-0.1l-0.2,0.1l-4.8-3.2l0,0l0-0.2l2.8-62.3h0.2h4h0.2l2.8,62.3l0,0.2l0,0L1226.9,506z M1222.2,433l2.2,6.7
	h0.2h4.2h0.2l2.2-6.7H1222.2z"/>
<path class="st3" d="M1258.9,379.8c0,0-4,3.9-9,3.1c-3.7-0.6-32.4-5.2-43.2-6.6c-1.3-0.2-4.1-0.2-5.3-0.7c-1.8-0.7-5-3.8-5-5.7
	c0-1.9,4.6-0.9,5.5-0.8c0.9,0.1,4.8,0.7,4.8,0.7s3-9.2,4.1-12.1c1.1-2.8,1.4-10.3,19.1-6.1c5.3,1.3,16.8,1.4,18.3,3.4
	c1.3,1.9,1.8,10.5,1.9,13.5c0.1,2.9,0.1,9.2,1,9.6c0.4,0.2,2.3,0.7,4.2,0.9C1257.2,379.3,1259.1,379.3,1258.9,379.8z"/>
<path class="st3" d="M1239.2,382.2c-1,0-5.5,0-7.8,0.6c-2.1,0.6-5.2,0.8-5.5,0.8v0c0,0-3.3-0.2-5.5-0.8c-2.3-0.6-6.7-0.6-7.8-0.6
	c-1,0-6.9,0.8-7.1,0.9l0.3,2.7c0,0,1-0.1,1.3,1.6c0.3,1.7,1.7,5.3,2.7,6.5c1.1,1.2,3.3,2.1,5.5,2.1c2.2,0,3.7-0.3,5.1-1.2
	c1.4-0.9,2.5-2.8,3.2-4.9c0.7-2.1,0.7-3,2.2-3v0c1.6,0,1.6,0.9,2.3,3c0.7,2.1,1.9,4,3.2,4.9c1.4,0.9,2.9,1.2,5.1,1.2
	c2.2,0,4.4-0.8,5.5-2.1c1-1.2,2.4-4.8,2.7-6.5c0.3-1.7,1.3-1.6,1.3-1.6l0.3-2.7C1246,383,1240.2,382.2,1239.2,382.2z M1222,391.6
	c-1.1,3-4,3.7-6.5,3.7c-2.5,0-4.3-0.9-5.2-2.1c-0.8-0.9-1.5-3.5-1.6-4.6c-0.1-1.2-0.4-3.8,1.1-4.6c1.5-0.8,5.8-0.6,5.8-0.6
	c1.4,0,3.1,0.3,4.8,0.7c1.7,0.4,2.6,1.1,2.8,2C1223.2,387,1223,388.6,1222,391.6z M1243.2,388.6c-0.1,1.2-0.9,3.7-1.6,4.6
	c-1,1.2-2.7,2.1-5.2,2.1c-2.5,0-5.4-0.6-6.5-3.7c-1.1-3-1.3-4.6-1.1-5.5c0.2-0.9,1.1-1.6,2.8-2c1.7-0.4,3.4-0.7,4.8-0.7
	c0,0,4.3-0.2,5.8,0.6C1243.6,384.8,1243.3,387.5,1243.2,388.6z"/>
<g>
</g>
<g>
</g>
<g>
</g>
<g>
</g>
<g>
</g>
<g>
</g>
<g>
</g>
<g>
</g>
<g>
</g>
<g>
</g>
<g>
</g>
<g>
</g>
<g>
</g>
<g>
</g>
<g>
</g>
>>>>>>> fae42880b86f59b601dc40f31b934877c6b3e7b2
</svg>
